<?xml version="1.0" encoding="UTF-8" standalone="no"?>
<svg width="23px" height="28px" viewBox="0 0 23 28" version="1.1" xmlns="http://www.w3.org/2000/svg" xmlns:xlink="http://www.w3.org/1999/xlink" xmlns:sketch="http://www.bohemiancoding.com/sketch/ns">
    <!-- Generator: Sketch 3.1.1 (8761) - http://www.bohemiancoding.com/sketch -->
    <title>Fill 2</title>
    <desc>Created with Sketch.</desc>
    <defs></defs>
    <g id="Page-1" stroke="none" stroke-width="1" fill="none" fill-rule="evenodd" sketch:type="MSPage">
        <path d="M10.3825,22.4256431 L2.487,13.93 L0.463,15.814 L11.762,27.967 L23.062,15.814 L21.039,13.93 L13.1455,22.42166 L13.1455,0.805 L10.3825,0.805 L10.3825,22.4256431 L10.3825,22.4256431 Z" id="Fill-2" fill="#0000FF" sketch:type="MSShapeGroup"></path>
    </g>
</svg>