<?xml version="1.0" encoding="UTF-8" standalone="no"?>
<svg width="8px" height="12px" viewBox="0 0 8 12" version="1.1" xmlns="http://www.w3.org/2000/svg" xmlns:xlink="http://www.w3.org/1999/xlink" xmlns:sketch="http://www.bohemiancoding.com/sketch/ns">
    <!-- Generator: Sketch 3.0.4 (8053) - http://www.bohemiancoding.com/sketch -->
    <title>Slice 2</title>
    <desc>Created with Sketch.</desc>
    <defs></defs>
    <g id="Page-1" stroke="none" stroke-width="1" fill="none" fill-rule="evenodd" sketch:type="MSPage">
        <g id="Imported-Layers" sketch:type="MSLayerGroup" fill="#FFFFFF">
            <path d="M2.856,5.863 C4.398,5.863 5.646,4.614 5.646,3.073 C5.646,1.532 4.398,0.283 2.856,0.283 C1.316,0.283 0.067,1.532 0.067,3.073 C0.067,4.614 1.316,5.863 2.856,5.863 L2.856,5.863 Z M2.856,1.87 C3.522,1.87 4.06,2.408 4.06,3.073 C4.06,3.738 3.522,4.276 2.856,4.276 C2.192,4.276 1.653,3.738 1.653,3.073 C1.653,2.408 2.192,1.87 2.856,1.87 L2.856,1.87 Z" id="Fill-1" sketch:type="MSShapeGroup"></path>
            <path d="M6.023,6.394 C5.68,6.095 5.163,6.131 4.864,6.472 C4.67,6.693 3.874,7.008 2.887,7.019 C2.073,7.014 1.386,6.818 1.055,6.457 C0.748,6.122 0.23,6.102 -0.104,6.407 C-0.439,6.713 -0.461,7.232 -0.155,7.566 C0.297,8.059 0.956,8.385 1.742,8.544 L0.008,10.343 C-0.306,10.669 -0.296,11.189 0.03,11.503 C0.356,11.817 0.875,11.808 1.19,11.481 L2.911,9.695 L4.633,11.481 C4.794,11.648 5.009,11.732 5.224,11.732 C5.429,11.732 5.634,11.656 5.794,11.503 C6.12,11.189 6.129,10.669 5.815,10.343 L4.073,8.535 C4.853,8.382 5.64,8.077 6.1,7.552 C6.398,7.211 6.363,6.692 6.023,6.394" id="Fill-2" sketch:type="MSShapeGroup"></path>
        </g>
    </g>
</svg>