<?xml version="1.0" encoding="UTF-8" standalone="no"?>
<svg width="133px" height="133px" viewBox="0 0 133 133" version="1.1" xmlns="http://www.w3.org/2000/svg" xmlns:xlink="http://www.w3.org/1999/xlink" xmlns:sketch="http://www.bohemiancoding.com/sketch/ns">
    <!-- Generator: Sketch 3.1.1 (8761) - http://www.bohemiancoding.com/sketch -->
    <title>brand-louboutin</title>
    <desc>Created with Sketch.</desc>
    <defs></defs>
    <g id="Page-1" stroke="none" stroke-width="1" fill="none" fill-rule="evenodd" sketch:type="MSPage">
        <g id="Imported-Layers" sketch:type="MSLayerGroup" fill="#FFFFFF">
            <path d="M20.014,98.192 C20.467,98.722 21.802,98.569 24.017,97.739 C26.183,96.933 28.046,95.95 29.608,94.794 C30.615,94.038 31.232,93.472 31.459,93.093 L29.873,92.64 C28.462,92.464 26.926,92.702 25.264,93.358 C22.569,94.39 20.87,95.497 20.166,96.681 C19.736,97.335 19.687,97.839 20.014,98.192 L20.014,98.192 Z M44.566,78.776 C42.627,81.52 41.581,84.581 41.431,87.956 L41.543,88.409 C41.67,88.686 41.884,88.786 42.186,88.712 C43.168,88.409 44.856,86.319 47.248,82.44 L47.248,82.251 C47.172,82.177 46.957,82.265 46.605,82.517 C46.177,82.843 45.724,82.896 45.246,82.667 C44.767,82.44 44.603,82.052 44.754,81.497 L45.284,79.571 C45.662,78.589 46.391,77.306 47.475,75.718 C46.517,76.397 45.547,77.417 44.566,78.776 L44.566,78.776 Z M48.757,75.868 C48.23,76.499 47.865,77.103 47.664,77.683 C47.16,79.266 46.957,80.149 47.058,80.325 L47.625,80.44 C47.978,80.362 48.242,80.112 48.419,79.685 C49.552,77.29 49.917,75.768 49.514,75.114 L48.757,75.868 L48.757,75.868 Z M75.728,75.491 C75.526,76.8 75.513,77.884 75.69,78.741 L76.067,80.362 C76.093,80.44 76.143,80.466 76.219,80.44 L77.692,77.683 C77.994,76.749 78.07,76.259 77.919,76.208 L77.276,76.208 C76.924,76.208 76.66,76.095 76.483,75.868 C76.282,75.593 76.169,75.253 76.143,74.851 L76.143,74.093 L76.067,73.792 L75.728,75.491 L75.728,75.491 Z M73.801,72.886 L74.216,73.187 L74.631,72.733 L75.009,71.827 L72.442,71.753 L71.232,71.977 L72.479,72.393 C73.185,72.62 73.626,72.784 73.801,72.886 L73.801,72.886 Z M78.748,70.731 L78.372,72.091 C78.17,73.022 78.208,73.616 78.486,73.868 C78.913,73.692 79.077,73.325 78.975,72.772 L78.748,71.564 L78.825,70.921 C78.85,70.745 78.825,70.681 78.748,70.731 L78.748,70.731 Z M73.839,57.739 C73.814,58.997 73.323,60.557 72.365,62.421 C71.434,64.21 69.848,66.099 67.607,68.087 L64.509,70.507 L63.83,73.677 C63.603,76.071 64.07,78.136 65.228,79.874 C66.134,81.257 67.154,82.114 68.287,82.44 L70.968,82.214 C71.674,81.911 72.265,81.472 72.743,80.892 C73.222,80.388 73.449,79.507 73.423,78.249 C73.398,76.964 73.134,76.032 72.631,75.452 C71.346,74.345 69.81,73.841 68.022,73.94 L65.718,74.472 C65.215,75.228 64.812,75.478 64.509,75.228 C64.333,75.075 64.346,74.851 64.547,74.546 L64.887,74.093 C66.675,72.052 69.168,70.745 72.365,70.165 L76.634,69.899 C77.542,68.565 78.56,67.47 79.693,66.614 C80.474,66.034 81.015,65.858 81.318,66.087 C81.495,66.235 81.57,66.513 81.544,66.917 L81.356,68.276 L81.242,70.241 C81.294,71.173 81.205,71.903 80.978,72.431 C80.752,73.085 80.802,73.313 81.129,73.11 C81.281,72.683 81.594,72.243 82.074,71.788 L82.715,71.222 L84,67.559 C85.158,66.427 85.99,65.858 86.492,65.858 C86.77,65.858 86.909,66.011 86.909,66.311 C86.909,66.438 86.733,66.565 86.379,66.689 L84.075,72.468 C83.672,73.651 83.358,74.71 83.131,75.642 C82.879,76.774 82.854,77.329 83.055,77.306 C83.458,77.306 84.189,76.675 85.247,75.415 L86.379,73.489 L87.248,71.487 C87.375,71.134 87.55,70.884 87.777,70.731 L88.458,70.241 L89.061,69.749 L89.627,69.788 C89.93,69.864 89.666,70.731 88.835,72.393 C88.482,73.099 88.217,73.753 88.042,74.358 C87.689,75.466 87.802,75.97 88.381,75.868 C89.313,75.667 90.119,74.886 90.799,73.526 C90.522,71.21 90.685,68.831 91.29,66.388 C91.516,65.433 91.932,64.198 92.536,62.687 L92.838,61.931 L92.801,61.855 C92.322,61.931 91.53,62.284 90.421,62.913 L88.911,63.819 C88.507,64.198 88.192,64.386 87.965,64.386 L87.739,64.272 C88.042,63.165 89.25,62.083 91.365,61.024 L93.594,60.042 C94.072,58.909 94.639,57.876 95.294,56.944 L96.087,55.888 L97.447,54.755 L98.315,54.565 C98.568,54.642 98.593,54.817 98.391,55.095 C98.064,55.522 97.623,56.202 97.069,57.132 L96.314,58.38 C96.087,58.757 96.011,58.997 96.087,59.097 L96.314,59.097 L99.827,58.229 L104.737,57.739 L106.097,57.85 C106.348,58.026 106.324,58.241 106.021,58.493 L104.208,59.892 L98.806,60.269 L95.407,60.948 C94.627,62.409 94.098,63.655 93.82,64.688 L93.216,68.39 C93.04,69.724 93.077,71.108 93.33,72.544 C93.455,73.274 93.606,73.868 93.783,74.319 C94.111,75.228 94.665,75.352 95.445,74.698 L96.956,72.733 L97.183,72.28 L98.354,69.106 C98.63,68.378 98.983,67.786 99.412,67.333 L99.978,66.841 C100.758,66.286 101.211,66.136 101.337,66.388 L101.299,66.917 C100.695,68.075 100.066,69.587 99.412,71.45 L98.618,73.868 C98.466,74.319 98.518,74.546 98.769,74.546 C98.945,74.546 99.171,74.446 99.449,74.245 L99.675,73.979 L101.073,70.165 L102.471,68.995 C103.05,68.843 103.176,69.284 102.848,70.317 L102.206,71.864 C102.056,72.116 102.017,72.267 102.093,72.319 L102.206,72.319 C102.987,71.462 104.108,70.644 105.568,69.864 C106.298,69.46 106.953,69.144 107.531,68.919 C108.54,68.54 109.207,68.63 109.534,69.185 C109.836,69.737 109.698,70.466 109.119,71.374 C108.666,72.104 108.199,73.073 107.72,74.282 L107.154,75.868 C106.827,76.774 106.739,77.593 106.889,78.323 C107.042,79.003 107.343,79.456 107.796,79.685 L110.894,79.495 C111.448,79.292 112.542,78.462 114.18,77.001 C114.911,76.397 115.338,76.311 115.465,76.739 C115.474,76.782 115.481,76.825 115.481,76.866 L115.481,76.899 C115.472,77.153 115.291,77.364 114.936,77.53 L113.348,78.741 L112.254,79.645 C110.692,81.007 109.182,81.763 107.72,81.911 L105.983,81.763 C104.951,81.384 104.397,80.491 104.321,79.079 L104.548,77.04 L105.378,74.811 L106.739,71.864 C107.142,70.958 107.104,70.507 106.627,70.507 L105.794,70.769 C104.863,71.249 103.982,71.839 103.15,72.544 C102.294,73.249 101.728,73.88 101.451,74.435 C101.124,75.114 100.632,75.692 99.978,76.171 C98.869,76.901 98.466,76.938 98.769,76.284 C99.122,75.528 99.146,75.253 98.844,75.452 L97.9,76.247 C97.372,76.647 96.931,76.774 96.579,76.624 C96.225,76.474 96.063,76.157 96.087,75.681 L96.238,74.999 L96.238,74.698 L96.163,74.735 L95.218,75.718 C94.462,76.548 93.77,77.026 93.141,77.153 L92.423,77.077 C91.945,76.901 91.516,76.284 91.139,75.228 L91.063,74.925 L90.95,74.851 L90.913,74.886 L89.552,75.981 L88.042,77.077 L87.437,77.417 C85.977,78.147 85.296,77.997 85.397,76.964 L85.359,76.548 L85.208,76.624 C83.697,78.21 82.489,79.13 81.583,79.382 L80.676,79.307 C80.373,79.204 80.437,78.21 80.864,76.323 L81.62,73.489 L80.336,74.735 C80.135,75.692 79.807,76.585 79.353,77.417 C78.397,79.331 77.339,80.819 76.181,81.874 C75.35,82.628 74.746,82.97 74.368,82.896 C74.167,82.843 73.965,82.567 73.764,82.064 L73.498,81.308 L73.386,81.27 C72.606,82.528 71.61,83.511 70.402,84.218 L68.853,84.895 C66.99,85.224 65.328,84.516 63.868,82.78 L62.206,80.099 C59.511,82.944 57.774,84.181 56.993,83.802 C56.742,83.7 56.603,83.438 56.578,83.007 L56.615,82.403 C55.28,83.712 54.11,84.516 53.102,84.819 L51.969,84.858 C51.063,84.253 50.824,82.956 51.252,80.968 L52.196,78.21 L49.665,80.478 C48.683,82.415 47.915,83.763 47.361,84.516 C45.095,87.767 43.219,89.831 41.733,90.714 C41.254,90.991 40.852,91.128 40.524,91.128 L40.146,91.052 C39.416,90.853 39.076,90.021 39.127,88.562 L39.429,86.444 C38.371,88.208 36.961,89.97 35.198,91.733 C38.975,93.849 43.306,94.919 48.192,94.944 L54.349,94.339 C59.485,93.231 63.338,92.073 65.908,90.864 C71.321,88.321 74.557,86.849 75.614,86.444 C80.399,84.606 85.926,83.89 92.196,84.292 C95.395,84.493 98.416,84.907 101.261,85.538 C102.219,85.665 104.712,86.419 108.741,87.806 C110.176,88.284 110.982,88.636 111.159,88.862 C111.285,89.013 111.133,89.253 110.704,89.579 C110.377,89.806 109.912,89.884 109.307,89.806 L108.514,89.579 C105.694,88.472 102.672,87.538 99.449,86.784 C93.254,85.351 87.878,85.011 83.319,85.765 C78.233,86.595 74.494,87.667 72.102,88.975 C69.835,90.587 67.696,91.872 65.681,92.829 C62.382,94.417 59.751,95.485 57.787,96.038 C55.394,96.72 52.221,97.196 48.267,97.474 C44.792,97.751 41.216,97.196 37.541,95.813 L33.046,93.659 C31.208,95.524 29.306,96.958 27.342,97.966 C24.294,99.577 21.94,100.143 20.278,99.665 C19.749,99.515 19.333,99.263 19.032,98.909 L18.691,98.458 C18.515,97.651 18.704,96.72 19.258,95.661 C19.989,94.302 21.248,93.069 23.036,91.96 C24.999,90.724 27.391,90.21 30.212,90.411 C31.623,90.536 32.831,90.776 33.838,91.128 C37.087,88.509 39.214,85.64 40.222,82.517 C40.675,81.056 40.877,79.167 40.826,76.851 C40.801,75.817 40.373,74.169 39.542,71.903 C38.762,69.737 37.956,67.888 37.125,66.351 L34.103,60.571 L32.252,56.831 C31.069,53.28 30.59,50.12 30.816,47.35 C31.069,44.505 32.126,41.144 33.989,37.265 C35.551,33.968 37.629,30.88 40.222,28.011 C41.532,26.55 42.677,25.429 43.659,24.649 C44.131,24.138 44.535,23.88 44.869,23.876 L44.893,23.876 C44.978,23.876 45.057,23.895 45.132,23.931 L45.473,24.386 L46.152,28.577 C46.303,29.811 46.379,31.485 46.379,33.601 C46.303,35.716 45.962,37.843 45.359,39.985 C45.057,41.044 44.767,41.897 44.49,42.556 C43.508,45.198 41.57,47.728 38.674,50.145 L34.632,52.94 C34.153,52.991 34.065,52.852 34.367,52.524 L34.971,51.997 C37.238,50.259 38.913,48.659 39.996,47.198 C41.38,45.335 42.451,42.97 43.206,40.099 C43.911,37.53 44.05,34.595 43.622,31.298 L42.752,27.104 C39.051,30.403 36.306,34.735 34.518,40.099 C33.637,42.792 33.121,45.159 32.97,47.198 C32.718,49.263 33.46,52.411 35.198,56.642 L37.879,62.347 C40.423,66.351 42.01,70.317 42.64,74.245 C42.942,76.233 42.992,77.807 42.791,78.966 L44.906,76.927 C46.82,75.138 48.444,74.03 49.779,73.603 C50.509,72.948 51.088,72.671 51.516,72.772 C51.717,72.847 51.843,72.974 51.894,73.149 C52.272,73.526 51.856,75.327 50.647,78.552 L52.234,77.153 C56.062,72.847 57.156,72.141 55.52,75.038 C54.488,76.876 53.857,78.589 53.631,80.175 L53.593,81.987 C53.719,82.718 54.324,82.769 55.407,82.14 L56.955,80.968 C57.56,77.921 58.491,75.882 59.751,74.851 C60.909,73.892 61.551,73.503 61.676,73.677 C61.752,73.753 61.701,73.929 61.526,74.208 L60.506,75.755 L60.014,76.774 C59.411,78.663 59.071,80.05 58.995,80.931 L59.071,81.685 C59.599,81.534 60.544,80.679 61.903,79.118 C61.601,76.901 61.714,74.546 62.243,72.052 C62.974,68.577 64.459,65.38 66.701,62.46 C69.998,58.202 72.203,56.126 73.31,56.227 C73.663,56.253 73.839,56.755 73.839,57.739 L73.839,57.739 Z M71.232,59.136 L71.158,58.946 C68.992,61.112 67.254,63.544 65.945,66.235 L64.661,69.597 C67.128,67.86 68.928,65.935 70.062,63.819 C70.842,62.384 71.258,61.011 71.308,59.702 L71.232,59.136 L71.232,59.136 Z" id="Fill-2" sketch:type="MSShapeGroup"></path>
        </g>
    </g>
</svg>