<?xml version="1.0" encoding="UTF-8" standalone="no"?>
<svg width="78px" height="93px" viewBox="0 0 78 93" version="1.1" xmlns="http://www.w3.org/2000/svg" xmlns:xlink="http://www.w3.org/1999/xlink" xmlns:sketch="http://www.bohemiancoding.com/sketch/ns">
    <!-- Generator: Sketch 3.1.1 (8761) - http://www.bohemiancoding.com/sketch -->
    <title>arr-down</title>
    <desc>Created with Sketch.</desc>
    <defs></defs>
    <g id="Page-1" stroke="none" stroke-width="1" fill="none" fill-rule="evenodd" sketch:type="MSPage">
        <path d="M33.825,73.7302876 L6.901,44.758 L0,51.185 L38.527,92.625 L77.064,51.185 L70.162,44.758 L43.247,73.7123632 L43.247,0 L33.825,0 L33.825,73.7302876 L33.825,73.7302876 Z" id="Fill-2" fill="#FF592E" sketch:type="MSShapeGroup"></path>
    </g>
</svg>