<?xml version="1.0" encoding="UTF-8" standalone="no"?>
<svg width="125px" height="71px" viewBox="0 0 125 71" version="1.1" xmlns="http://www.w3.org/2000/svg" xmlns:xlink="http://www.w3.org/1999/xlink" xmlns:sketch="http://www.bohemiancoding.com/sketch/ns">
    <!-- Generator: Sketch 3.0.4 (8053) - http://www.bohemiancoding.com/sketch -->
    <title>step-4</title>
    <desc>Created with Sketch.</desc>
    <defs>
        <path id="path-1" d="M0.35,16.127 L21.257,16.127 L21.257,0.258 L0.35,0.258"></path>
    </defs>
    <g id="Page-1" stroke="none" stroke-width="1" fill="none" fill-rule="evenodd" sketch:type="MSPage">
        <g id="Imported-Layers" sketch:type="MSLayerGroup" transform="translate(2.000000, 1.000000)">
            <path d="M56.881,40.081 L69.03,40.081 L69.03,48.749 L56.881,48.749 L56.881,40.081 Z" id="Fill-1" fill="#FF592E" sketch:type="MSShapeGroup"></path>
            <path d="M59.31,40.081 L59.31,48.587 M66.601,40.081 L66.601,48.587" id="Stroke-2" stroke="#0043F9" stroke-width="1.215" sketch:type="MSShapeGroup"></path>
            <path d="M79.966,55.268 L67.925,55.11 L67.925,51.693 L68.608,51.693 C68.608,51.693 73.739,51.548 75.106,52.23 C76.473,52.914 79.966,55.268 79.966,55.268 L79.966,55.268 Z M66.899,55.11 L57.676,54.767 L59.042,51.427 L66.899,51.693 L66.899,55.11 L66.899,55.11 Z M58.018,51.427 L56.65,54.767 L52.021,54.661 C52.021,54.661 54.033,53.522 55.059,52.838 C56.083,52.155 57.676,51.427 58.018,51.427 L58.018,51.427 Z M94.572,61.259 L93.89,60.917 C93.89,60.917 93.89,61.6 93.548,59.892 C93.205,58.183 92.182,57.501 90.132,56.817 C88.081,56.134 82.615,55.451 82.615,55.451 C80.151,54.219 76.808,51.009 72.707,50.668 C68.608,50.326 52.629,50.408 52.629,50.408 L52.893,52.376 L49.817,54.425 L48.451,55.792 L47.769,59.209 L47.084,60.917 L47.769,63.65 L52.051,63.65 C52.358,61.566 54.139,59.961 56.31,59.961 C58.48,59.961 60.26,61.566 60.567,63.65 L79.604,63.65 C79.912,61.566 81.691,59.961 83.862,59.961 C86.032,59.961 87.813,61.566 88.12,63.65 L94.231,63.65 L94.572,61.259 L94.572,61.259 Z" id="Fill-3" fill="#0000FF" sketch:type="MSShapeGroup"></path>
            <path d="M56.309,67.455 C58.058,67.455 59.481,66.032 59.481,64.283 C59.481,62.534 58.058,61.111 56.309,61.111 C54.561,61.111 53.137,62.534 53.137,64.283 C53.137,66.032 54.561,67.455 56.309,67.455" id="Fill-4" fill="#0000FF" sketch:type="MSShapeGroup"></path>
            <path d="M56.309,67.455 C58.058,67.455 59.481,66.032 59.481,64.283 C59.481,62.534 58.058,61.111 56.309,61.111 C54.561,61.111 53.137,62.534 53.137,64.283 C53.137,66.032 54.561,67.455 56.309,67.455 L56.309,67.455 Z" id="Stroke-5" stroke="#FFFFFF" stroke-width="0.607" sketch:type="MSShapeGroup"></path>
            <path d="M83.862,67.455 C85.611,67.455 87.034,66.032 87.034,64.283 C87.034,62.534 85.611,61.111 83.862,61.111 C82.113,61.111 80.69,62.534 80.69,64.283 C80.69,66.032 82.113,67.455 83.862,67.455" id="Fill-6" fill="#0000FF" sketch:type="MSShapeGroup"></path>
            <path d="M83.862,67.455 C85.611,67.455 87.034,66.032 87.034,64.283 C87.034,62.534 85.611,61.111 83.862,61.111 C82.113,61.111 80.69,62.534 80.69,64.283 C80.69,66.032 82.113,67.455 83.862,67.455 L83.862,67.455 Z" id="Stroke-7" stroke="#FFFFFF" stroke-width="0.607" sketch:type="MSShapeGroup"></path>
            <path d="M55.039,50.817 L55.633,49.194 L71.048,49.194 L72.826,51.224" id="Stroke-8" stroke="#0043F9" stroke-width="1.215" sketch:type="MSShapeGroup"></path>
            <path d="M93.965,67.419 L47.795,67.419" id="Stroke-9" stroke="#0043F9" stroke-width="0.607" sketch:type="MSShapeGroup"></path>
            <path d="M49.01,67.419 L31.393,67.419" id="Stroke-10" stroke="#0043F9" stroke-width="0.607" stroke-dasharray="2.517,2.517" sketch:type="MSShapeGroup"></path>
            <path d="M17.481,0.448 L37.209,0.448 L37.209,15.422 L17.481,15.422 L17.481,0.448 Z" id="Fill-11" fill="#F1F1EF" sketch:type="MSShapeGroup"></path>
            <path d="M17.481,5.573 L37.209,5.573 L37.209,10.635 L17.481,10.635 L17.481,5.573 Z" id="Fill-12" fill="#0000FF" sketch:type="MSShapeGroup"></path>
            <path d="M17.481,10.636 L37.209,10.636 L37.209,15.424 L17.481,15.424 L17.481,10.636 Z" id="Fill-13" fill="#FF592E" sketch:type="MSShapeGroup"></path>
            <path d="M17.405,68.259 L17.405,0.259" id="Stroke-14" stroke="#0043F9" stroke-width="2.025" sketch:type="MSShapeGroup"></path>
            <path d="M0.351,14.259 L21.258,14.259 L21.258,30.129 L0.351,30.129 L0.351,14.259 Z" id="Fill-15" fill="#E5E4E2" sketch:type="MSShapeGroup"></path>
            <g id="Group-18" transform="translate(0.000000, 14.000000)">
                <mask id="mask-2" sketch:name="Clip 17" fill="white">
                    <use xlink:href="#path-1"></use>
                </mask>
                <g id="Clip-17"></g>
                <path d="M24.225,8.193 L-4.977,8.193 M8.565,-3.625 L8.565,18.623" id="Stroke-16" stroke="#0043F9" stroke-width="2.781" sketch:type="MSShapeGroup" mask="url(#mask-2)"></path>
            </g>
            <path d="M0.405,68.259 L0.405,14.259" id="Stroke-19" stroke="#0043F9" stroke-width="2.025" sketch:type="MSShapeGroup"></path>
        </g>
    </g>
</svg>