<?xml version="1.0" encoding="UTF-8" standalone="no"?>
<svg width="124px" height="70px" viewBox="0 0 124 70" version="1.1" xmlns="http://www.w3.org/2000/svg" xmlns:xlink="http://www.w3.org/1999/xlink" xmlns:sketch="http://www.bohemiancoding.com/sketch/ns">
    <!-- Generator: Sketch 3.0.4 (8053) - http://www.bohemiancoding.com/sketch -->
    <title>Group 2</title>
    <desc>Created with Sketch.</desc>
    <defs></defs>
    <g id="Page-1" stroke="none" stroke-width="1" fill="none" fill-rule="evenodd" sketch:type="MSPage">
        <g id="Group" sketch:type="MSLayerGroup" transform="translate(1.000000, 3.000000)">
            <path d="M5.415,2.259 L109.415,2.259 L109.415,62.259 L5.415,62.259 L5.415,2.259 L5.415,2.259 Z" id="Fill-1" fill="#FFFFFF" sketch:type="MSShapeGroup"></path>
            <path d="M6.915,-0.241 L107.415,-0.241 L107.415,20.759 L6.915,20.759 L6.915,-0.241 L6.915,-0.241 Z M16.415,44.759 L56.915,44.759 L56.915,55.759 L16.415,55.759 L16.415,44.759 L16.415,44.759 Z" id="Fill-2" fill="#FF592E" sketch:type="MSShapeGroup"></path>
            <path d="M6.915,-0.241 L9.915,-0.241 L9.915,20.759 L6.915,20.759 L6.915,-0.241 L6.915,-0.241 Z" id="Fill-3" fill="#0000FF" sketch:type="MSShapeGroup"></path>
            <path d="M5.915,63.259 L108.915,63.259 L108.915,0.259 L5.915,0.259 L5.915,63.259 L5.915,63.259 Z" id="Stroke-4" stroke="#0043F9" stroke-width="3" sketch:type="MSShapeGroup"></path>
            <path d="M-0.085,63.259 L113.915,63.259 L113.915,66.259 L-0.085,66.259 L-0.085,63.259 L-0.085,63.259 Z" id="Fill-5" fill="#0000FF" sketch:type="MSShapeGroup"></path>
            <path d="M20.165,48.759 L53.165,48.759 L53.165,51.759 L20.165,51.759 L20.165,48.759 L20.165,48.759 Z" id="Fill-7" fill="#FFFFFF" sketch:type="MSShapeGroup"></path>
            <path d="M17.573,25.965 L21.664,25.965 L21.664,30.868 L20.585,30.868 L20.585,26.939 L18.652,26.939 L18.652,30.868 L17.573,30.868 L17.573,25.965 M23.033,28.417 C23.033,27.023 24.132,25.881 25.645,25.881 C27.158,25.881 28.244,27.009 28.244,28.417 C28.244,29.81 27.144,30.952 25.631,30.952 C24.118,30.952 23.033,29.824 23.033,28.417 L23.033,28.417 L23.033,28.417 Z M27.116,28.417 C27.116,27.576 26.499,26.876 25.631,26.876 C24.763,26.876 24.161,27.562 24.161,28.417 C24.161,29.257 24.777,29.957 25.645,29.957 C26.514,29.957 27.116,29.271 27.116,28.417 L27.116,28.417 L27.116,28.417 Z M33.675,25.965 L33.675,30.868 L32.597,30.868 L32.597,26.939 L31.182,26.939 L31.182,27.31 C31.182,30.195 30.712,30.931 29.592,30.931 C29.417,30.931 29.158,30.903 29.024,30.868 L29.095,29.978 C29.144,29.985 29.193,29.992 29.263,29.992 C29.844,29.992 30.173,29.621 30.173,26.98 L30.173,25.965 L33.675,25.965 M38.561,25.965 L39.731,25.965 L37.847,29.754 C37.419,30.609 36.929,30.945 36.243,30.945 C35.822,30.945 35.493,30.833 35.185,30.658 L35.606,29.866 C35.801,29.985 35.998,30.027 36.187,30.027 C36.383,30.027 36.607,29.936 36.803,29.635 L34.842,25.965 L36.046,25.965 L37.377,28.557 L38.561,25.965 M43.782,29.04 C43.453,29.201 42.984,29.404 42.487,29.404 C41.513,29.404 40.841,28.893 40.841,27.758 L40.841,25.965 L41.919,25.965 L41.919,27.443 C41.919,28.052 42.158,28.396 42.711,28.396 C43.145,28.396 43.558,28.255 43.782,28.08 L43.782,25.965 L44.861,25.965 L44.861,30.868 L43.782,30.868 L43.782,29.04 M50.713,30.868 L49.649,30.868 L49.649,27.653 L47.506,30.868 L46.49,30.868 L46.49,25.965 L47.555,25.965 L47.555,29.18 L49.712,25.965 L50.713,25.965 L50.713,30.868 M53.428,26.96 L51.936,26.96 L51.936,25.965 L55.998,25.965 L55.998,26.96 L54.506,26.96 L54.506,30.868 L53.428,30.868 L53.428,26.96 M57.221,25.965 L58.3,25.965 L58.3,27.632 L59.343,27.632 C60.478,27.632 61.136,28.262 61.136,29.222 C61.136,30.231 60.422,30.868 59.273,30.868 L57.221,30.868 L57.221,25.965 L57.221,25.965 Z M58.3,28.557 L58.3,29.894 L59.259,29.894 C59.792,29.894 60.065,29.663 60.065,29.208 C60.065,28.795 59.792,28.557 59.252,28.557 L58.3,28.557 L58.3,28.557 Z M19.254,34.918 L20.248,34.918 L22.35,39.856 L21.222,39.856 L20.774,38.756 L18.701,38.756 L18.252,39.856 L17.153,39.856 L19.254,34.918 L19.254,34.918 Z M20.389,37.803 L19.737,36.213 L19.086,37.803 L20.389,37.803 L20.389,37.803 Z M23.257,38.882 L23.719,38.882 C24.084,38.035 24.259,37.201 24.259,35.527 L24.259,34.953 L27.824,34.953 L27.824,38.882 L28.412,38.882 L28.272,40.878 L27.368,40.878 L27.368,39.856 L24.301,39.856 L24.23,40.878 L23.257,40.878 L23.257,38.882 L23.257,38.882 Z M25.295,35.926 L25.295,36.424 C25.295,37.46 25.134,38.203 24.854,38.882 L26.745,38.882 L26.745,35.926 L25.295,35.926 L25.295,35.926 Z M29.648,34.953 L31.651,34.953 C32.821,34.953 33.528,35.646 33.528,36.662 C33.528,37.796 32.646,38.385 31.546,38.385 L30.727,38.385 L30.727,39.856 L29.648,39.856 L29.648,34.953 L29.648,34.953 Z M31.582,37.425 C32.121,37.425 32.436,37.103 32.436,36.669 C32.436,36.186 32.1,35.926 31.561,35.926 L30.727,35.926 L30.727,37.425 L31.582,37.425 L31.582,37.425 Z M34.737,34.953 L38.435,34.953 L38.435,35.912 L35.809,35.912 L35.809,36.907 L38.12,36.907 L38.12,37.866 L35.809,37.866 L35.809,38.896 L38.47,38.896 L38.47,39.856 L34.737,39.856 L34.737,34.953 M39.595,37.404 C39.595,36.01 40.646,34.869 42.152,34.869 C43.076,34.869 43.595,35.219 44.05,35.667 L43.405,36.41 C43.027,36.066 42.705,35.863 42.145,35.863 C41.318,35.863 40.723,36.55 40.723,37.404 C40.723,38.245 41.304,38.945 42.145,38.945 C42.705,38.945 43.048,38.721 43.434,38.371 L44.12,39.106 C43.616,39.646 43.055,39.94 42.11,39.94 C40.667,39.94 39.595,38.826 39.595,37.404" id="Fill-8" fill="#0043F9" sketch:type="MSShapeGroup"></path>
            <path d="M38.8928433,53.2699342 L36.915,54.853 L37.673,48.758 L42.874,52.835 L39.9379329,52.8494299 L41.6450261,57.8223679 L40.5809739,58.1876321 L38.8928433,53.2699342 L38.8928433,53.2699342 Z" id="Fill-21" fill="#0000FF" sketch:type="MSShapeGroup"></path>
            <path d="M49.987,13.114 C49.987,13.46 49.708,13.738 49.363,13.738 C49.018,13.738 48.739,13.46 48.739,13.114 C48.739,12.771 49.018,12.49 49.363,12.49 C49.708,12.49 49.987,12.771 49.987,13.114 M20.99,11.186 C20.99,10.203 20.325,9.558 19.535,9.558 C18.745,9.558 18.052,10.214 18.052,11.205 C18.052,12.187 18.745,12.833 19.535,12.833 C20.335,12.833 20.99,12.207 20.99,11.186 M16.915,8.652 L18.081,8.652 L18.081,9.5 C18.456,8.97 18.986,8.546 19.805,8.546 C21.009,8.546 22.175,9.5 22.175,11.205 C22.175,12.89 21.019,13.844 19.805,13.844 C18.967,13.844 18.437,13.421 18.081,12.948 L18.081,15.28 L16.915,15.28 L16.915,8.652 M26.963,11.205 C26.963,10.308 26.318,9.568 25.402,9.568 C24.468,9.568 23.871,10.299 23.871,11.205 C23.871,12.091 24.516,12.843 25.422,12.843 C26.366,12.843 26.963,12.101 26.963,11.205 M22.705,11.205 C22.705,9.75 23.861,8.546 25.422,8.546 C26.982,8.546 28.129,9.731 28.129,11.205 C28.129,12.65 26.973,13.854 25.402,13.854 C23.851,13.854 22.705,12.67 22.705,11.205 M28.649,11.205 C28.649,9.76 29.766,8.546 31.289,8.546 C32.252,8.546 32.849,8.903 33.321,9.423 L32.599,10.203 C32.242,9.828 31.867,9.568 31.279,9.568 C30.431,9.568 29.815,10.299 29.815,11.205 C29.815,12.111 30.441,12.843 31.337,12.843 C31.886,12.843 32.291,12.583 32.657,12.207 L33.36,12.9 C32.859,13.459 32.271,13.854 31.279,13.854 C29.766,13.854 28.649,12.67 28.649,11.205 M34.044,6.759 L35.21,6.759 L35.21,9.442 C35.537,8.96 36.009,8.546 36.799,8.546 C37.946,8.546 38.61,9.317 38.61,10.502 L38.61,13.738 L37.445,13.738 L37.445,10.848 C37.445,10.058 37.05,9.606 36.356,9.606 C35.682,9.606 35.21,10.079 35.21,10.868 L35.21,13.738 L34.044,13.738 L34.044,6.759 M39.872,12.332 L39.872,9.654 L39.226,9.654 L39.226,8.652 L39.872,8.652 L39.872,7.255 L41.038,7.255 L41.038,8.652 L42.406,8.652 L42.406,9.654 L41.038,9.654 L41.038,12.149 C41.038,12.602 41.269,12.785 41.664,12.785 C41.924,12.785 42.155,12.728 42.386,12.612 L42.386,13.566 C42.097,13.73 41.77,13.825 41.336,13.825 C40.479,13.825 39.872,13.449 39.872,12.332 M46.529,11.609 C46.23,11.493 45.816,11.407 45.363,11.407 C44.631,11.407 44.198,11.705 44.198,12.217 C44.198,12.698 44.631,12.967 45.18,12.967 C45.951,12.967 46.529,12.534 46.529,11.898 L46.529,11.609 L46.529,11.609 Z M46.5,13.738 L46.5,13.112 C46.153,13.526 45.623,13.845 44.853,13.845 C43.889,13.845 43.041,13.296 43.041,12.254 C43.041,11.128 43.918,10.589 45.103,10.589 C45.72,10.589 46.115,10.675 46.51,10.801 L46.51,10.705 C46.51,10.001 46.066,9.615 45.257,9.615 C44.689,9.615 44.265,9.74 43.803,9.934 L43.485,8.998 C44.043,8.748 44.593,8.574 45.421,8.574 C46.924,8.574 47.656,9.364 47.656,10.724 L47.656,13.738 L46.5,13.738 L46.5,13.738 Z M54.959,8.686 L56.125,8.686 L56.125,13.739 L54.959,13.739 L54.959,8.686 L54.959,8.686 Z M51.558,9.654 L50.913,9.654 L50.913,8.681 L51.558,8.681 L51.558,8.315 C51.558,7.172 51.907,6.759 53.102,6.759 L54.063,6.759 L54.063,7.79 L52.724,7.79 L52.724,8.691 L54.063,8.691 L54.063,9.654 L52.724,9.654 L52.724,13.739 L51.558,13.739 L51.558,9.654 L51.558,9.654 Z M54.965,6.759 L56.116,6.759 L56.116,7.79 L54.965,7.79 L54.965,6.759 L54.965,6.759 Z" id="Fill-23" fill="#FFFFFF" sketch:type="MSShapeGroup"></path>
            <path d="M70.576,25.759 L100.648,25.759 L100.648,48.585 L70.576,48.585 L70.576,25.759 L70.576,25.759 Z" id="Fill-32" fill="#E5E4E2" sketch:type="MSShapeGroup"></path>
            <path d="M72.395,39.172 L80.391,39.172 L80.391,48.584 L84.391,48.584 L84.391,39.172 L100.647,39.172 L100.647,35.172 L84.391,35.172 L84.391,25.759 L80.391,25.759 L80.391,35.172 L72.395,35.172 L72.395,25.759 L68.915,25.759 L68.915,63.759 L72.395,63.759 L72.395,39.172 L72.395,39.172 Z" id="Stroke-33" fill="#0043F9" sketch:type="MSShapeGroup"></path>
        </g>
    </g>
</svg>