<?xml version="1.0" encoding="UTF-8" standalone="no"?>
<svg width="32px" height="32px" viewBox="0 0 32 32" version="1.1" xmlns="http://www.w3.org/2000/svg" xmlns:xlink="http://www.w3.org/1999/xlink" xmlns:sketch="http://www.bohemiancoding.com/sketch/ns">
    <!-- Generator: Sketch 3.0.4 (8053) - http://www.bohemiancoding.com/sketch -->
    <title>cir-vk</title>
    <desc>Created with Sketch.</desc>
    <defs></defs>
    <g id="Page-1" stroke="none" stroke-width="1" fill="none" fill-rule="evenodd" sketch:type="MSPage">
        <g id="Imported-Layers" sketch:type="MSLayerGroup" transform="translate(0.000000, 1.000000)" fill="#ffffff">
            <path d="M15.804,-0.115 C7.336,-0.115 0.448,6.773 0.448,15.24 C0.448,23.708 7.336,30.597 15.804,30.597 C24.271,30.597 31.16,23.708 31.16,15.24 C31.16,6.773 24.271,-0.115 15.804,-0.115 L15.804,-0.115 Z M15.804,29.008 C8.213,29.008 2.037,22.832 2.037,15.24 C2.037,7.649 8.213,1.473 15.804,1.473 C23.395,1.473 29.571,7.649 29.571,15.24 C29.571,22.832 23.395,29.008 15.804,29.008 L15.804,29.008 Z" id="Fill-1" sketch:type="MSShapeGroup"></path>
            <path d="M18.299,15.001 C19.046,14.583 19.675,13.923 19.675,12.739 C19.675,11.99 19.436,11.406 18.957,10.928 C18.358,10.328 17.415,10 16.217,10 L11.348,10 L11.348,20.481 L16.335,20.481 C18.703,20.481 20.259,19.526 20.259,17.607 C20.259,16.169 19.512,15.465 18.299,15.001 L18.299,15.001 Z M13.595,12.02 L15.872,12.02 C16.846,12.02 17.385,12.41 17.385,13.099 C17.385,13.909 16.741,14.238 15.722,14.238 L13.595,14.238 L13.595,12.02 L13.595,12.02 Z M16.335,18.463 L13.595,18.463 L13.595,16.156 L16.262,16.156 C17.444,16.156 17.968,16.589 17.968,17.293 C17.968,18.102 17.355,18.463 16.335,18.463 L16.335,18.463 Z" id="Fill-2" sketch:type="MSShapeGroup"></path>
        </g>
    </g>
</svg>
