<?xml version="1.0" encoding="UTF-8" standalone="no"?>
<svg width="25px" height="25px" viewBox="0 0 25 25" version="1.1" xmlns="http://www.w3.org/2000/svg" xmlns:xlink="http://www.w3.org/1999/xlink" xmlns:sketch="http://www.bohemiancoding.com/sketch/ns">
    <!-- Generator: Sketch 3.1.1 (8761) - http://www.bohemiancoding.com/sketch -->
    <title>Imported Layers</title>
    <desc>Created with Sketch.</desc>
    <defs></defs>
    <g id="Page-1" stroke="none" stroke-width="1" fill="none" fill-rule="evenodd" sketch:type="MSPage">
        <g id="Imported-Layers" sketch:type="MSLayerGroup" stroke="#0000FF">
            <path d="M24.562,12.28 C24.562,19.064 19.064,24.562 12.281,24.562 C5.498,24.562 0,19.064 0,12.28 C0,5.498 5.498,0 12.281,0 C19.064,0 24.562,5.498 24.562,12.28 L24.562,12.28 Z" id="Stroke-1" sketch:type="MSShapeGroup"></path>
            <path d="M7.489,16.999 L17.348,7.14 L7.489,16.999 Z" id="Path" sketch:type="MSShapeGroup"></path>
            <path d="M15.61,16.999 L7.489,16.999" id="Stroke-2" stroke-width="0.85" sketch:type="MSShapeGroup"></path>
        </g>
    </g>
</svg>