<?xml version="1.0" encoding="UTF-8" standalone="no"?>
<svg width="14px" height="14px" viewBox="0 0 14 14" version="1.1" xmlns="http://www.w3.org/2000/svg" xmlns:xlink="http://www.w3.org/1999/xlink" xmlns:sketch="http://www.bohemiancoding.com/sketch/ns">
    <!-- Generator: Sketch 3.1.1 (8761) - http://www.bohemiancoding.com/sketch -->
    <title>circle-help</title>
    <desc>Created with Sketch.</desc>
    <defs></defs>
    <g id="Page-1" stroke="none" stroke-width="1" fill="none" fill-rule="evenodd" sketch:type="MSPage">
        <g id="Imported-Layers" sketch:type="MSLayerGroup" transform="translate(0.500000, 0.000000)">
            <path d="M13.24,6.754 C13.24,10.372 10.309,13.302 6.692,13.302 C3.076,13.302 0.144,10.372 0.144,6.754 C0.144,3.137 3.076,0.205 6.692,0.205 C10.309,0.205 13.24,3.137 13.24,6.754" id="Fill-1" fill="#969495" sketch:type="MSShapeGroup"></path>
            <path d="M6.225,6.571 L6.277,6.513 C7.707,6.414 8.44,5.782 8.395,4.835 C8.358,4.04 7.712,3.434 6.72,3.479 C5.906,3.519 5.297,3.931 4.766,4.606 L4.18,4.095 C4.771,3.307 5.529,2.75 6.707,2.695 C8.192,2.627 9.216,3.506 9.276,4.782 C9.341,6.16 8.337,6.89 7.09,7.123 L7.034,8.318 L6.473,8.346 L6.225,6.571 L6.225,6.571 Z M6.29,9.382 L7.303,9.332 L7.356,10.489 L6.343,10.534 L6.29,9.382 L6.29,9.382 Z" id="Fill-2" fill="#FFFFFF" sketch:type="MSShapeGroup"></path>
        </g>
    </g>
</svg>