<svg version="1.1" id="dashboard-arrow" xmlns="http://www.w3.org/2000/svg" xmlns:xlink="http://www.w3.org/1999/xlink" x="0px"
	 y="0px" viewBox="0 0 37.5 36.9" enable-background="new 0 0 37.5 36.9" xml:space="preserve">
<polyline fill="none" stroke="#969495" stroke-miterlimit="10" points="9.2,22.5 18.6,12.8 28.1,22.5 "/>
<circle fill="none" stroke="#969495" stroke-miterlimit="10" cx="18.8" cy="18.5" r="17.4"/>
</svg>
