<?xml version="1.0" encoding="UTF-8" standalone="no"?>
<svg width="13px" height="13px" viewBox="0 0 13 13" version="1.1" xmlns="http://www.w3.org/2000/svg" xmlns:xlink="http://www.w3.org/1999/xlink" xmlns:sketch="http://www.bohemiancoding.com/sketch/ns">
    <!-- Generator: Sketch 3.1.1 (8761) - http://www.bohemiancoding.com/sketch -->
    <title>error-small</title>
    <desc>Created with Sketch.</desc>
    <defs></defs>
    <g id="Page-1" stroke="none" stroke-width="1" fill="none" fill-rule="evenodd" sketch:type="MSPage">
        <g id="Fill-1-+-Fill-2" sketch:type="MSLayerGroup">
            <path d="M13,6.50099267 C13,10.0914783 10.0904856,13 6.5,13 C2.91050703,13 0,10.0914783 0,6.50099267 C0,2.91050703 2.91050703,0 6.5,0 C10.0904856,0 13,2.91050703 13,6.50099267" id="Fill-1" fill="#FF0000" sketch:type="MSShapeGroup"></path>
            <path d="M6,9.54600305 L7.119,9.54600305 L7.119,10.8240031 L6,10.8240031 L6,9.54600305 Z M6.011,2.99300305 L6.011,2.30000305 L7.107,2.30000305 L7.107,2.99300305 L6.814,8.41300305 L6.291,8.41300305 L6.011,2.99300305 L6.011,2.99300305 Z" id="Fill-2" fill="#FFFFFF" sketch:type="MSShapeGroup"></path>
        </g>
    </g>
</svg>