<?xml version="1.0" encoding="UTF-8" standalone="no"?>
<svg width="133px" height="133px" viewBox="0 0 133 133" version="1.1" xmlns="http://www.w3.org/2000/svg" xmlns:xlink="http://www.w3.org/1999/xlink" xmlns:sketch="http://www.bohemiancoding.com/sketch/ns">
    <!-- Generator: Sketch 3.1.1 (8761) - http://www.bohemiancoding.com/sketch -->
    <title>brand-burberry</title>
    <desc>Created with Sketch.</desc>
    <defs></defs>
    <g id="Page-1" stroke="none" stroke-width="1" fill="none" fill-rule="evenodd" sketch:type="MSPage">
        <g id="Imported-Layers" sketch:type="MSLayerGroup" fill="#FFFFFF">
            <path d="M46.507,96.087 L46.507,95.888 L46.954,95.888 L46.954,93.852 L46.507,93.852 L46.507,93.606 L48.194,93.606 L48.194,93.852 L47.748,93.852 L47.748,95.888 L48.096,95.888 C48.989,95.888 49.237,95.641 49.237,94.996 L49.485,94.996 L49.485,96.087 C49.485,96.137 46.507,96.087 46.507,96.087" id="Fill-2" sketch:type="MSShapeGroup"></path>
            <path d="M54.847,96.137 C54.003,96.137 53.209,95.541 53.209,94.847 C53.209,94.151 53.903,93.506 54.847,93.506 C55.84,93.506 56.535,94.151 56.535,94.847 C56.535,95.541 55.84,96.137 54.847,96.137 L54.847,96.137 Z M55.393,93.852 C55.294,93.754 55.144,93.754 54.847,93.754 C54.698,93.754 54.499,93.754 54.351,93.852 C54.151,94.052 54.053,94.201 54.053,94.847 C54.053,95.541 54.151,95.641 54.351,95.789 C54.499,95.888 54.698,95.888 54.847,95.888 C55.144,95.888 55.294,95.888 55.393,95.789 C55.642,95.641 55.74,95.541 55.74,94.847 C55.74,94.201 55.642,94.052 55.393,93.852 L55.393,93.852 Z" id="Fill-3" sketch:type="MSShapeGroup"></path>
            <path d="M63.584,93.852 L63.584,96.137 L63.138,96.137 L60.953,93.852 L60.953,95.888 L61.4,95.888 L61.4,96.087 L60.258,96.087 L60.258,95.888 L60.655,95.888 L60.655,93.852 L60.258,93.852 L60.258,93.606 L61.747,93.606 L63.336,95.292 L63.336,93.852 L62.79,93.852 L62.79,93.606 L64.03,93.606 L64.03,93.852 L63.584,93.852" id="Fill-4" sketch:type="MSShapeGroup"></path>
            <path d="M76.442,96.137 C75.548,96.137 74.754,95.541 74.754,94.847 C74.754,94.151 75.448,93.506 76.442,93.506 C77.385,93.506 78.18,94.151 78.18,94.847 C78.18,95.541 77.385,96.137 76.442,96.137 L76.442,96.137 Z M76.938,93.852 C76.888,93.754 76.689,93.754 76.442,93.754 C76.243,93.754 76.094,93.754 75.995,93.852 C75.747,94.052 75.648,94.201 75.648,94.847 C75.648,95.541 75.747,95.641 75.995,95.789 C76.094,95.888 76.243,95.888 76.442,95.888 C76.689,95.888 76.888,95.888 76.938,95.789 C77.235,95.641 77.335,95.541 77.335,94.847 C77.335,94.201 77.235,94.052 76.938,93.852 L76.938,93.852 Z" id="Fill-5" sketch:type="MSShapeGroup"></path>
            <path d="M85.229,93.852 L85.229,96.137 L84.881,96.137 L82.597,93.852 L82.597,95.888 L83.044,95.888 L83.044,96.087 L81.902,96.087 L81.902,95.888 L82.35,95.888 L82.35,93.852 L81.902,93.852 L81.902,93.606 L83.392,93.606 L84.98,95.292 L84.98,93.852 L84.434,93.852 L84.434,93.606 L85.675,93.606 L85.675,93.852 L85.229,93.852" id="Fill-6" sketch:type="MSShapeGroup"></path>
            <path d="M69.194,96.087 L67.655,96.087 L67.655,95.888 L68.052,95.888 L68.052,93.852 L67.655,93.852 L67.655,93.606 L69.194,93.606 C70.187,93.606 70.882,94.151 70.882,94.847 C70.882,95.541 70.187,96.087 69.194,96.087 L69.194,96.087 Z M69.739,93.952 C69.641,93.852 69.491,93.852 69.194,93.852 L68.847,93.852 L68.847,95.888 L69.194,95.888 C69.491,95.888 69.641,95.789 69.739,95.69 C69.987,95.541 70.087,95.541 70.087,94.847 C70.087,94.301 69.987,94.151 69.739,93.952 L69.739,93.952 Z" id="Fill-7" sketch:type="MSShapeGroup"></path>
            <path d="M16.82,87.351 L9.424,87.351 L9.424,87.003 L11.36,87.003 L11.36,79.805 L9.424,79.805 L9.424,79.357 L16.026,79.357 C18.161,79.357 19.75,79.953 19.75,81.294 C19.75,82.435 18.409,83.031 16.771,83.031 C18.757,83.031 20.544,83.826 20.544,85.216 C20.544,86.308 19.303,87.351 16.82,87.351 L16.82,87.351 Z M15.282,79.805 L13.693,79.805 L13.693,82.882 L15.679,82.882 C16.82,82.882 17.714,82.684 17.714,81.294 C17.714,79.953 16.82,79.805 15.282,79.805 L15.282,79.805 Z M15.629,83.28 L13.693,83.28 L13.693,87.003 L15.679,87.003 C16.921,87.003 18.36,86.755 18.36,85.216 C18.36,83.477 17.218,83.28 15.629,83.28 L15.629,83.28 Z" id="Fill-8" sketch:type="MSShapeGroup"></path>
            <path d="M60.06,87.351 L52.663,87.351 L52.663,87.003 L54.599,87.003 L54.599,79.805 L52.663,79.805 L52.663,79.357 L59.266,79.357 C61.4,79.357 62.988,79.953 62.988,81.294 C62.988,82.435 61.648,83.031 59.96,83.031 C61.995,83.031 63.783,83.826 63.783,85.216 C63.783,86.308 62.542,87.351 60.06,87.351 L60.06,87.351 Z M58.471,79.805 L56.883,79.805 L56.883,82.882 L58.917,82.882 C60.06,82.882 60.953,82.684 60.953,81.294 C60.953,79.953 60.06,79.805 58.471,79.805 L58.471,79.805 Z M58.818,83.28 L56.883,83.28 L56.883,87.003 L58.917,87.003 C60.159,87.003 61.449,86.755 61.449,85.216 C61.449,83.477 60.407,83.28 58.818,83.28 L58.818,83.28 Z" id="Fill-9" sketch:type="MSShapeGroup"></path>
            <path d="M33.997,79.805 L33.997,84.719 C33.997,86.755 32.31,87.598 29.629,87.598 C27.692,87.598 24.664,87.102 24.664,84.818 L24.664,79.805 L22.729,79.805 L22.729,79.357 L28.983,79.357 L28.983,79.805 L26.948,79.805 L26.948,84.818 C26.948,86.755 28.536,87.003 30.026,87.003 C31.912,87.003 33.55,86.406 33.55,84.719 L33.55,79.805 L31.565,79.805 L31.565,79.357 L36.032,79.357 L36.032,79.805 L33.997,79.805" id="Fill-10" sketch:type="MSShapeGroup"></path>
            <path d="M49.387,87.598 C48.096,87.598 46.507,87.003 46.507,85.315 L46.507,84.818 C46.507,83.826 45.613,83.379 44.323,83.379 L42.039,83.379 L42.039,87.003 L43.876,87.003 L43.876,87.351 L37.771,87.351 L37.771,87.003 L39.706,87.003 L39.706,79.805 L37.771,79.805 L37.771,79.357 L44.571,79.357 C46.954,79.357 48.344,80.201 48.344,81.343 C48.344,82.435 47.102,83.229 45.365,83.229 C47.848,83.229 48.89,84.272 48.89,85.414 L48.89,86.308 C48.89,86.804 49.138,87.151 49.783,87.151 C50.181,87.151 50.479,87.003 50.628,86.804 L50.925,87.151 C50.578,87.45 50.131,87.598 49.387,87.598 L49.387,87.598 Z M43.678,79.805 L42.039,79.805 L42.039,82.932 L43.776,82.932 C45.117,82.932 46.06,82.684 46.06,81.343 C46.06,80.151 45.365,79.805 43.678,79.805 L43.678,79.805 Z" id="Fill-11" sketch:type="MSShapeGroup"></path>
            <path d="M107.419,87.598 C106.078,87.598 104.589,87.003 104.589,85.315 L104.589,84.818 C104.589,83.826 103.645,83.379 102.306,83.379 L100.023,83.379 L100.023,87.003 L101.858,87.003 L101.858,87.351 L95.802,87.351 L95.802,87.003 L97.738,87.003 L97.738,79.805 L95.802,79.805 L95.802,79.357 L102.653,79.357 C104.937,79.357 106.426,80.201 106.426,81.343 C106.426,82.435 105.135,83.229 103.348,83.229 C105.929,83.229 106.872,84.272 106.872,85.414 L106.872,86.308 C106.872,86.804 107.22,87.151 107.767,87.151 C108.213,87.151 108.461,87.003 108.759,86.804 L108.908,87.151 C108.56,87.45 108.114,87.598 107.419,87.598 L107.419,87.598 Z M101.71,79.805 L100.023,79.805 L100.023,82.932 L101.759,82.932 C103.1,82.932 104.143,82.684 104.143,81.343 C104.143,80.151 103.348,79.805 101.71,79.805 L101.71,79.805 Z" id="Fill-12" sketch:type="MSShapeGroup"></path>
            <path d="M92.525,87.598 C91.235,87.598 89.647,87.003 89.647,85.315 L89.647,84.818 C89.647,83.826 88.653,83.379 87.362,83.379 L85.129,83.379 L85.129,87.003 L87.016,87.003 L87.016,87.351 L80.909,87.351 L80.909,87.003 L82.846,87.003 L82.846,79.805 L80.909,79.805 L80.909,79.357 L87.71,79.357 C90.093,79.357 91.483,80.201 91.483,81.343 C91.483,82.435 90.143,83.229 88.505,83.229 C90.937,83.229 92.029,84.272 92.029,85.414 L92.029,86.308 C92.029,86.804 92.277,87.151 92.873,87.151 C93.32,87.151 93.618,87.003 93.767,86.804 L93.965,87.151 C93.618,87.45 93.221,87.598 92.525,87.598 L92.525,87.598 Z M86.817,79.805 L85.129,79.805 L85.129,82.932 L86.916,82.932 C88.207,82.932 89.2,82.684 89.2,81.343 C89.2,80.151 88.405,79.805 86.817,79.805 L86.817,79.805 Z" id="Fill-13" sketch:type="MSShapeGroup"></path>
            <path d="M66.414,87.351 L66.414,87.003 L68.399,87.003 L68.399,79.805 L66.414,79.805 L66.414,79.357 L77.037,79.357 L77.037,81.89 L76.591,81.89 C76.591,80.847 75.796,79.805 73.81,79.805 L70.634,79.805 L70.634,83.031 L71.874,83.031 C73.364,83.031 73.81,82.236 73.81,81.542 L74.257,81.542 L74.257,84.967 L73.81,84.967 C73.81,84.272 73.364,83.477 71.874,83.477 L70.634,83.477 L70.634,87.003 L73.86,87.003 C76.442,87.003 77.385,85.86 77.385,84.62 L77.832,84.62 L77.832,87.351 L66.414,87.351" id="Fill-14" sketch:type="MSShapeGroup"></path>
            <path d="M120.872,79.805 L117.298,84.024 L117.298,87.003 L119.283,87.003 L119.283,87.351 L113.028,87.351 L113.028,87.003 L115.063,87.003 L115.063,83.926 L111.39,79.805 L109.156,79.805 L109.156,79.357 L115.858,79.357 L115.858,79.805 L113.822,79.805 L117.198,83.379 L120.375,79.805 L118.44,79.805 L118.44,79.357 L122.659,79.357 L122.659,79.805 L120.872,79.805" id="Fill-15" sketch:type="MSShapeGroup"></path>
            <path d="M125.985,75.981 C124.942,75.981 124.049,76.776 124.049,77.868 C124.049,78.911 124.942,79.705 125.985,79.705 C127.027,79.705 127.821,78.911 127.821,77.868 C127.821,76.776 126.977,75.981 125.985,75.981 L125.985,75.981 Z M125.886,76.28 L125.985,76.28 C126.779,76.28 127.475,76.975 127.475,77.868 C127.475,78.712 126.779,79.357 125.985,79.357 C125.091,79.357 124.496,78.712 124.496,77.868 C124.496,76.975 125.091,76.33 125.886,76.28 L125.886,76.28 Z M125.29,76.776 L125.29,78.911 L125.538,78.911 L125.538,78.018 L125.886,78.018 L126.53,78.911 L126.878,78.911 L126.233,77.918 C126.63,77.918 126.779,77.671 126.779,77.422 C126.779,76.975 126.53,76.776 126.084,76.776 L125.29,76.776 L125.29,76.776 Z M125.538,77.671 L125.538,77.075 L125.985,77.075 C126.332,77.075 126.53,77.124 126.53,77.422 C126.53,77.571 126.332,77.671 126.084,77.671 L125.538,77.671 L125.538,77.671 Z" id="Fill-16" sketch:type="MSShapeGroup"></path>
            <path d="M44.707,35.546 C44.707,35.546 48.995,31.62 58.421,36.192 C58.096,37.528 57.085,38.62 57.085,38.62 C57.085,38.62 53.809,37.083 52.96,38.095 C52.069,39.064 50.532,38.944 50.532,38.944 C48.995,38.176 44.707,35.546 44.707,35.546" id="Fill-17" sketch:type="MSShapeGroup"></path>
            <path d="M58.096,38.822 C58.096,38.822 58.096,37.729 59.998,37.729 C59.229,37.486 58.582,37.486 58.582,37.486 C59.067,36.759 59.148,36.356 60.807,36.356 C62.466,36.356 63.193,37.973 63.193,37.973 C62.789,38.418 62.87,39.469 63.112,39.794 C62.019,39.551 59.998,38.337 59.836,38.822 L58.096,38.822" id="Fill-18" sketch:type="MSShapeGroup"></path>
            <path d="M63.599,37.729 C63.599,37.729 68.452,39.551 74.034,39.307 C79.616,39.064 82.975,43.352 82.975,43.352 C82.975,43.352 85.118,45.052 88.151,45.697 C85.766,45.697 85.523,45.779 84.956,45.901 C84.39,45.981 82.487,45.213 81.194,44.323 C79.859,43.435 73.388,43.069 73.388,43.069 L68.371,43.069 C68.371,43.069 64.731,42.988 64.003,40.278 C63.274,37.567 63.599,37.729 63.599,37.729" id="Fill-19" sketch:type="MSShapeGroup"></path>
            <path d="M86.614,46.468 C86.614,46.468 88.678,47.356 89.162,48.612 C90.781,49.259 92.439,49.501 93.006,49.824 C93.612,50.147 94.34,50.269 94.987,50.391 C94.462,50.147 94.301,49.542 93.815,49.259 C92.884,48.692 92.035,49.178 91.144,48.287 C90.498,47.6 90.094,46.671 89.082,46.468 C88.355,46.306 87.302,46.144 86.614,46.468" id="Fill-20" sketch:type="MSShapeGroup"></path>
            <path d="M59.715,40.158 L57.976,40.158 C57.976,40.158 57.53,39.187 60.079,39.187 C59.715,39.592 59.513,39.711 59.715,40.158" id="Fill-21" sketch:type="MSShapeGroup"></path>
            <path d="M62.264,39.794 C62.264,39.794 60.321,39.632 60.16,39.873 C59.998,40.117 60.24,40.278 60.24,40.278 L62.183,40.361 L62.264,39.794" id="Fill-22" sketch:type="MSShapeGroup"></path>
            <path d="M62.628,40.805 C62.628,40.805 64.003,40.361 65.176,42.584 C65.095,43.514 64.245,44.729 64.084,44.729 C63.922,44.729 62.951,45.375 62.628,45.981 C62.628,44.891 62.87,44.485 63.274,43.919 C63.68,43.352 63.599,41.775 63.437,41.532 C63.274,41.291 62.628,40.805 62.628,40.805" id="Fill-23" sketch:type="MSShapeGroup"></path>
            <path d="M61.373,35.789 C61.373,35.789 63.558,35.668 64.448,36.759 C65.337,37.852 66.187,37.083 66.187,37.083 C66.186,37.083 66.309,36.112 65.54,35.546 C66.632,36.313 67.197,37.205 67.279,37.405 C67.4,37.648 68.735,38.418 68.735,36.435 C69.585,37.326 69.706,37.405 69.827,37.729 C69.908,38.095 71,39.269 72.012,38.418 C72.982,37.528 73.104,36.435 70.92,35.546 C71.242,36.639 71.121,37.528 70.15,36.558 C69.14,35.546 68.169,35.101 66.874,35.546 C65.337,35.019 63.354,34.777 61.373,35.789" id="Fill-24" sketch:type="MSShapeGroup"></path>
            <path d="M62.102,46.388 C62.102,46.388 62.708,46.71 63.274,45.618 C63.922,45.618 65.176,45.213 65.256,43.435 C65.58,44.97 65.58,47.276 65.499,47.6 L65.418,47.923 C65.418,47.923 66.227,48.166 66.551,47.438 C67.441,47.923 80.952,55.731 80.952,55.731 L80.709,56.055 L65.823,48.531 C65.823,48.531 64.65,48.247 64.084,48.247 C64.731,48.004 64.731,47.438 64.731,47.438 C64.73,47.438 63.274,47.923 63.193,47.923 C63.274,47.194 63.193,46.71 62.87,46.71 C62.547,46.71 63.112,47.923 62.102,47.923 C61.131,47.923 62.019,47.194 62.102,46.388" id="Fill-25" sketch:type="MSShapeGroup"></path>
            <path d="M65.823,46.226 L65.823,44.243 C65.823,43.919 66.874,45.132 67.036,45.901 C66.551,46.063 66.146,45.981 65.823,46.226" id="Fill-26" sketch:type="MSShapeGroup"></path>
            <path d="M66.146,46.953 C66.146,46.953 66.632,45.697 67.724,46.79 C68.775,47.844 68.129,47.682 68.129,47.682 C68.129,47.682 66.47,46.953 66.146,46.953" id="Fill-27" sketch:type="MSShapeGroup"></path>
            <path d="M41.593,34.533 L41.31,35.101 L55.144,42.504 L55.468,42.019 L41.593,34.533" id="Fill-28" sketch:type="MSShapeGroup"></path>
            <path d="M37.628,32.552 L39.529,34.533 C39.529,34.533 40.905,35.101 40.905,33.968 C40.905,32.795 38.761,32.998 37.628,32.552" id="Fill-29" sketch:type="MSShapeGroup"></path>
            <path d="M44.019,42.342 C44.019,42.342 42.32,42.907 42.078,40.805 C43.211,41.693 43.615,42.098 44.019,42.342" id="Fill-30" sketch:type="MSShapeGroup"></path>
            <path d="M41.916,40.319 C41.916,40.319 43.655,41.37 44.223,41.655 C43.776,40.724 45.193,40.724 41.916,40.319" id="Fill-31" sketch:type="MSShapeGroup"></path>
            <path d="M43.858,42.826 C43.858,42.826 42.726,42.988 42.644,44.323 C43.615,44.648 44.101,44.891 44.101,45.456 C43.372,45.697 42.726,45.213 42.483,44.97 C41.472,45.052 39.691,45.132 39.691,45.132 C39.691,45.132 42.078,45.981 43.211,45.981 C42.968,46.55 42.483,46.71 42.483,47.194 C42.483,47.682 42.401,49.421 42.401,49.421 C42.401,49.421 42.807,49.016 42.726,49.501 C42.644,49.986 42.239,49.905 42.239,49.905 C42.239,49.905 41.472,51.16 42.078,51.565 C42.644,51.968 43.454,50.875 43.454,50.875 C43.454,50.875 44.384,50.796 44.627,50.796 C44.869,50.796 44.95,49.743 44.707,49.259 C44.465,48.774 44.788,47.923 44.788,47.923 C45.031,48.935 45.354,48.935 45.679,48.935 C46.002,48.935 46.73,45.981 46.73,45.981 C46.73,45.981 47.579,43.677 45.193,43.069 C44.465,43.069 44.101,43.069 44.101,43.514 C43.776,43.435 43.858,42.826 43.858,42.826" id="Fill-32" sketch:type="MSShapeGroup"></path>
            <path d="M44.465,51.322 C44.465,51.322 43.696,51.038 43.291,51.726 C43.94,51.968 44.303,51.807 44.465,51.322" id="Fill-33" sketch:type="MSShapeGroup"></path>
            <path d="M45.031,50.553 C45.031,50.553 45.84,50.634 45.921,49.824 C46.487,50.147 47.013,50.715 46.73,51.038 C46.487,51.402 45.031,52.212 46.083,53.424 C47.175,54.679 48.145,53.79 48.469,53.79 C47.498,53.506 46.325,53.79 46.852,52.696 C47.336,51.646 47.661,51.483 47.661,51.483 C47.256,51.16 47.256,50.147 47.256,50.147 C47.256,50.147 46.164,49.259 45.193,49.259 C45.354,49.905 45.435,50.31 45.031,50.553" id="Fill-34" sketch:type="MSShapeGroup"></path>
            <path d="M47.256,46.79 C47.256,46.79 47.175,47.6 46.568,47.762 C47.013,48.531 46.852,48.935 46.852,48.935 C47.498,49.016 47.419,48.004 47.419,48.004 L47.256,46.79" id="Fill-35" sketch:type="MSShapeGroup"></path>
            <path d="M46.406,43.231 C46.406,43.231 47.336,44.566 47.419,45.697 C47.498,46.872 47.821,46.388 47.821,46.388 C47.821,46.388 48.065,50.634 48.065,51.24 C48.065,51.807 48.469,51.807 48.469,51.807 C50.573,50.958 52.231,48.65 54.376,48.085 C53.403,46.306 52.029,43.919 51.018,43.514 C50.047,43.069 48.065,42.504 46.406,43.231" id="Fill-36" sketch:type="MSShapeGroup"></path>
            <path d="M46.164,42.747 C46.164,42.747 45.84,43.069 45.031,42.26 C44.223,41.452 44.223,41.655 44.223,41.655 C44.223,41.655 45.273,41.291 45.517,41.37 C45.759,41.452 45.759,42.504 46.164,42.747" id="Fill-37" sketch:type="MSShapeGroup"></path>
            <path d="M46.933,42.504 C46.933,42.504 46.649,42.786 46.123,41.938 C45.557,41.048 45.557,41.291 45.557,41.291 C45.557,41.291 46.406,40.967 46.568,41.048 C46.73,41.167 46.649,42.22 46.933,42.504" id="Fill-38" sketch:type="MSShapeGroup"></path>
            <path d="M50.492,42.907 C50.33,42.18 50.33,41.979 50.33,41.532 C50.33,41.089 50.128,40.967 49.196,40.886 C49.399,41.41 49.562,41.655 49.481,41.897 C49.44,42.18 49.319,42.06 48.793,41.048 C48.349,40.724 48.065,40.886 48.065,40.886 C48.065,40.886 48.631,41.854 48.712,42.463 C49.44,42.504 50.25,42.747 50.492,42.907" id="Fill-39" sketch:type="MSShapeGroup"></path>
            <path id="Fill-40" sketch:type="MSShapeGroup"></path>
            <path d="M46.771,40.927 L46.81,40.927 C46.771,40.886 46.771,40.927 46.771,40.927" id="Fill-41" sketch:type="MSShapeGroup"></path>
            <path d="M48.268,42.14 C48.187,41.938 47.984,41.775 47.903,41.572 C47.862,41.33 47.943,41.089 47.782,40.927 C47.661,40.805 47.013,40.886 46.81,40.927 C46.852,40.967 46.933,41.167 47.094,41.775 C47.135,41.979 47.216,42.22 47.377,42.422 L48.308,42.422 C48.349,42.342 48.349,42.26 48.268,42.14" id="Fill-42" sketch:type="MSShapeGroup"></path>
            <path d="M48.227,52.536 C49.44,51.928 50.532,51.079 51.665,50.352 C52.475,49.824 53.648,48.855 54.658,48.855 C55.306,48.855 54.901,49.824 54.214,49.824 C54.658,50.147 54.82,50.31 54.537,50.391 C54.295,50.471 53.809,51.038 53.324,50.796 C52.839,50.553 52.515,51.038 52.676,51.402 C52.839,51.726 52.11,52.292 51.261,52.05 C50.451,51.807 50.613,52.696 50.613,53.102 C49.804,53.506 48.227,53.183 48.227,53.183 L48.227,52.536" id="Fill-43" sketch:type="MSShapeGroup"></path>
            <path d="M48.065,52.94 C48.065,53.102 47.903,53.263 47.7,53.263 C47.498,53.263 47.336,53.102 47.336,52.94 C47.336,52.778 47.498,52.656 47.7,52.656 C47.903,52.656 48.065,52.778 48.065,52.94" id="Fill-44" sketch:type="MSShapeGroup"></path>
            <path d="M55.144,50.875 C55.144,50.875 53.243,52.05 52.839,52.374 C52.434,52.696 51.261,53.344 51.018,53.344 C50.775,53.344 52.191,53.871 53.485,53.871 C53.648,53.263 53.324,52.696 55.144,50.875" id="Fill-45" sketch:type="MSShapeGroup"></path>
            <path d="M55.306,51.565 C55.306,51.565 54.214,52.292 54.214,53.263 L55.387,53.506 C55.387,53.506 56.034,52.778 56.438,52.778 C55.791,52.374 55.468,52.212 55.306,51.565" id="Fill-46" sketch:type="MSShapeGroup"></path>
            <path d="M54.901,54.193 C54.901,54.193 55.629,53.79 56.034,53.263 C56.438,52.778 56.843,53.344 56.843,53.344 C56.843,53.344 56.762,54.679 56.601,55.002 C55.953,54.759 54.901,54.193 54.901,54.193" id="Fill-47" sketch:type="MSShapeGroup"></path>
            <path d="M50.856,42.948 C50.856,42.948 51.099,41.816 50.856,41.291 C51.422,41.572 51.665,41.938 51.665,41.938 L51.584,43.231 L50.856,42.948" id="Fill-48" sketch:type="MSShapeGroup"></path>
            <path d="M51.584,43.231 C51.584,43.231 52.515,44.041 52.596,44.323 C53.162,44.041 53.606,43.435 53.606,43.273 C53.324,42.948 53.04,42.504 53.04,42.504 C52.96,43.231 52.757,43.514 52.555,43.514 C52.352,43.514 52.596,42.14 52.596,42.14 C52.271,42.019 51.826,41.854 51.826,41.854 C51.826,41.854 51.988,43.231 51.584,43.231" id="Fill-49" sketch:type="MSShapeGroup"></path>
            <path d="M53,44.769 C53,44.769 53.283,45.052 53.364,45.255 C54.092,44.648 54.376,43.919 54.376,43.919 L53.931,43.595 C53.931,43.595 53.485,44.364 53.121,44.606 L53,44.769" id="Fill-50" sketch:type="MSShapeGroup"></path>
            <path d="M53.688,45.618 C53.688,45.618 54.537,44.81 54.537,44.526 C55.023,45.052 55.023,45.255 55.023,45.255 C55.023,45.255 54.295,46.023 54.052,46.023 C53.769,46.023 53.688,45.618 53.688,45.618" id="Fill-51" sketch:type="MSShapeGroup"></path>
            <path d="M61.211,48.046 C61.211,48.046 61.05,47.438 60.848,48.369 C60.605,49.3 60.442,49.259 60.24,49.178 C60.24,49.623 59.392,50.471 58.096,52.01 C58.096,52.01 58.421,52.05 58.785,52.01 C58.825,51.968 58.864,51.968 58.906,51.928 C59.836,51.726 60.039,50.958 60.039,50.634 C60.281,50.269 60.523,49.905 60.727,49.581 C60.848,51.928 58.138,52.738 57.651,52.94 C57.166,53.102 57.166,54.274 57.085,55.287 C57.085,55.287 57.854,55.327 58.259,55.448 C58.259,54.721 59.513,53.911 59.513,53.911 C58.421,53.911 57.854,54.882 57.854,54.882 C57.854,54.882 57.53,55.125 57.489,54.882 C57.449,54.679 57.61,53.911 57.854,53.304 C61.373,52.09 61.171,50.352 61.333,49.866 C61.495,49.381 61.211,48.046 61.211,48.046" id="Fill-52" sketch:type="MSShapeGroup"></path>
            <path d="M60.442,52.494 C60.442,52.494 60.928,51.322 61.252,51.24 C61.615,51.12 61.979,48.774 61.979,48.409 C62.344,48.247 62.748,48.328 62.951,48.046 C63.193,48.855 63.233,50.675 63.031,50.675 C62.789,50.675 62.344,50.958 62.142,51.402 C61.94,51.807 61.333,51.928 61.333,51.928 C61.333,51.928 61.211,52.575 60.442,52.494" id="Fill-53" sketch:type="MSShapeGroup"></path>
            <path d="M61.615,52.212 C61.615,52.212 62.304,51.888 62.547,51.604 C62.748,51.322 63.397,51.282 63.397,51.282 C63.397,51.282 64.164,52.494 64.771,52.696 C63.962,53.304 63.639,53.79 63.354,54.396 C63.071,55.002 62.628,55.487 62.628,55.487 L62.019,55.567 C62.019,55.567 60.888,55.448 60.281,56.096 C60.16,54.963 60.119,53.304 61.252,52.94 C62.425,52.536 61.615,52.212 61.615,52.212" id="Fill-54" sketch:type="MSShapeGroup"></path>
            <path d="M64.326,51.483 C64.326,51.483 64.448,50.675 63.639,50.028 C63.639,48.855 63.68,48.531 64.164,48.531 C64.65,48.531 65.742,48.774 65.742,49.381 C65.742,49.947 64.812,51.483 64.326,51.483" id="Fill-55" sketch:type="MSShapeGroup"></path>
            <path d="M63.558,50.391 C63.558,50.391 63.639,51.038 64.003,51.12 C63.397,51.282 63.031,50.837 63.031,50.837 C63.031,50.837 63.518,50.796 63.558,50.391" id="Fill-56" sketch:type="MSShapeGroup"></path>
            <path d="M65.782,50.634 C65.782,50.634 65.378,52.738 64.65,53.304 C63.962,53.911 65.176,53.667 65.176,53.667 C65.176,53.667 65.095,54.193 64.123,54.963 C63.193,55.731 63.922,56.621 63.922,56.621 C63.922,56.621 64.204,57.59 63.233,57.023 C63.397,57.793 63.437,57.955 62.87,57.916 C63.193,58.481 64.407,59.168 65.135,57.996 C65.823,56.862 66.47,55.327 66.672,54.963 C66.025,55.165 66.106,55.327 65.256,55.083 C64.366,54.84 66.591,54.356 67.157,53.062 C67.684,52.331 67.926,52.131 67.926,52.131 C67.359,51.968 67.157,52.09 67.4,51.604 C66.793,51.688 66.712,52.05 66.309,51.928 C65.903,51.807 66.754,51.199 66.754,51.199 C66.754,51.199 67.157,51.038 67.846,51.12 C67.238,50.513 66.389,50.634 65.903,50.634 L65.782,50.634" id="Fill-57" sketch:type="MSShapeGroup"></path>
            <path d="M59.31,56.824 C59.31,56.824 60.483,56.824 61.211,56.055 C62.183,55.893 62.708,56.055 62.789,56.66 C62.87,57.227 62.183,57.389 62.183,57.632 C62.183,57.874 62.951,58.846 62.547,58.846 C62.102,58.846 61.696,59.211 60.644,58.279 C59.553,57.389 59.31,57.793 59.31,57.793 L59.31,56.824" id="Fill-58" sketch:type="MSShapeGroup"></path>
            <path d="M61.575,59.493 C61.575,59.493 61.009,59.249 60.727,58.764 C60.442,58.32 59.148,58.481 59.067,58.806 C58.986,59.168 58.502,61.151 58.138,61.556 C57.773,61.92 57.489,63.82 57.328,64.104 C57.126,64.427 58.582,64.911 58.582,64.911 C58.582,64.911 59.026,63.255 59.958,62.323 C60.848,61.352 61.575,59.774 61.575,59.493" id="Fill-59" sketch:type="MSShapeGroup"></path>
            <path d="M59.836,55.771 C59.836,55.771 59.026,55.53 58.703,55.165 C58.38,54.802 59.31,54.679 59.634,54.84 C59.998,55.002 59.877,55.448 59.836,55.771" id="Fill-60" sketch:type="MSShapeGroup"></path>
            <path d="M59.188,57.996 C59.188,57.996 58.38,59.29 58.259,59.815 C58.138,60.383 57.692,59.695 57.692,59.695 C57.692,59.695 58.461,58.077 58.623,57.955 C58.785,57.834 59.188,57.996 59.188,57.996" id="Fill-61" sketch:type="MSShapeGroup"></path>
            <path d="M57.489,60.585 C57.489,60.585 58.38,60.542 58.017,61.192 C57.692,61.839 57.207,61.394 57.207,61.394 C57.207,61.394 57.489,61.07 57.489,60.585" id="Fill-62" sketch:type="MSShapeGroup"></path>
            <path d="M57.449,62.161 C57.449,62.161 56.519,64.711 56.519,65.479 C56.519,66.247 55.508,65.073 55.144,65.073 C55.629,64.104 56.681,62.161 57.045,62.161 L57.449,62.161" id="Fill-63" sketch:type="MSShapeGroup"></path>
            <path d="M58.259,65.358 C58.259,65.358 57.288,65.035 57.085,64.873 C56.924,64.711 56.519,66.247 57.449,66.289 C58.38,66.328 58.421,66.086 58.38,65.519 L58.259,65.358" id="Fill-64" sketch:type="MSShapeGroup"></path>
            <path d="M63.233,58.764 C63.233,58.764 60.727,62.283 60.321,62.567 C61.091,62.89 62.304,63.456 62.708,63.052 C63.071,62.688 64.487,60.221 64.569,59.655 C64.609,59.128 63.8,59.008 63.233,58.764" id="Fill-65" sketch:type="MSShapeGroup"></path>
            <path d="M59.067,64.792 C59.067,64.792 59.392,63.498 59.998,63.498 C60.605,63.498 62.142,63.255 62.87,63.982 C63.558,64.144 64.003,64.388 64.407,64.59 C64.771,64.792 65.176,65.157 65.944,65.157 C66.672,65.157 67.359,65.358 67.359,65.358 C66.025,65.479 64.933,65.399 64.569,65.519 C64.164,65.642 63.233,66.086 62.748,66.086 C62.264,66.086 59.634,65.804 59.067,65.519 L58.541,65.235 C60.442,65.317 61.534,65.682 62.019,65.317 C62.547,64.911 59.067,64.792 59.067,64.792" id="Fill-66" sketch:type="MSShapeGroup"></path>
            <path d="M55.306,64.022 C55.306,64.022 51.665,64.226 51.261,64.144 C52.271,64.59 54.699,64.953 54.901,64.953 C55.144,64.953 55.306,64.022 55.306,64.022" id="Fill-67" sketch:type="MSShapeGroup"></path>
            <path d="M46.73,49.178 C46.73,49.178 47.498,49.259 47.742,49.866 C47.943,50.471 47.175,49.783 47.175,49.783 L46.73,49.178" id="Fill-68" sketch:type="MSShapeGroup"></path>
            <path d="M54.86,46.306 C54.86,46.306 53.971,46.063 53.931,46.226 C53.89,46.388 54.376,46.994 54.376,47.438 C54.376,47.884 54.376,46.55 54.82,46.468 L54.86,46.306" id="Fill-69" sketch:type="MSShapeGroup"></path>
            <path d="M53.283,55.609 C53.283,55.609 48.227,55.327 47.498,55.327 C46.81,55.327 45.8,57.429 45.598,57.996 L45.396,58.602 C45.273,58.52 45.071,58.725 44.829,59.048 C44.627,59.371 44.019,59.452 44.019,59.452 C44.019,59.452 41.916,59.815 40.783,59.371 C39.61,58.968 39.247,60.908 39.045,60.908 C38.802,60.908 39.206,62.608 39.206,62.608 C39.206,62.608 39.773,67.502 40.137,67.544 C40.46,67.583 40.986,67.38 41.391,68.352 C41.755,69.362 43.858,69.362 43.858,69.362 L43.898,68.473 C43.898,68.473 43.535,68.473 43.13,68.028 C42.767,67.583 42.32,66.651 41.391,66.289 C40.46,65.924 41.715,65.843 41.715,65.843 C41.715,65.843 41.31,65.317 40.501,64.752 C39.691,64.226 40.056,62.001 40.299,61.839 C40.501,61.677 40.824,61.151 40.905,60.827 C40.945,60.464 44.384,61.03 45.071,60.585 C45.719,60.139 46.002,60.626 45.315,59.774 C44.667,58.887 48.268,59.655 48.268,59.655 C48.268,59.655 50.29,59.695 51.18,60.1 C52.11,60.504 55.791,61.839 56.276,62.243 C56.762,62.648 57.692,58.358 58.259,57.632 C58.825,56.903 53.89,55.731 53.89,55.731 C53.89,55.731 52.029,59.533 51.746,59.533 C51.503,59.533 51.422,59.333 53.283,55.609" id="Fill-70" sketch:type="MSShapeGroup"></path>
            <path d="M51.18,62.608 C51.18,62.608 49.602,62.122 49.44,61.596 C49.278,61.03 51.665,62.608 52.029,62.608 C52.352,62.608 52.029,63.538 51.787,63.658 C51.584,63.78 52.96,63.538 53.162,63.498 C53.364,63.456 55.387,63.618 55.387,62.445 C54.416,62.323 53.444,62.525 52.191,61.192 C50.573,61.03 49.643,60.383 49.117,60.059 C48.55,59.695 46.73,59.977 46.73,59.977 C46.73,59.977 46.528,60.585 48.55,60.542 C49.196,60.827 49.44,61.07 49.157,61.07 C48.874,61.07 46.325,60.827 44.182,61.232 C44.182,61.232 43.009,61.352 42.442,61.192 C41.835,61.03 40.905,62.161 40.905,62.161 C40.905,62.161 40.379,63.214 40.783,63.82 C41.148,64.427 43.454,67.017 43.575,67.866 C44.627,68.473 45.557,68.878 45.8,69.201 C46.083,69.524 46.649,69.484 46.852,69.687 C47.094,69.889 49.481,69.12 49.481,69.12 C49.481,69.12 49.319,67.057 46.81,67.017 C46.406,67.38 46.365,68.028 45.88,67.786 C45.396,67.502 46.002,67.26 46.002,66.935 C46.002,66.613 45.396,66.651 45.233,66.613 C45.071,66.57 44.465,66.086 44.384,65.723 C44.343,65.399 42.928,64.226 42.928,64.226 C42.928,64.226 42.32,63.255 44.182,63.658 C46.042,64.022 46.002,65.035 49.724,64.59 C51.18,63.942 51.18,62.608 51.18,62.608" id="Fill-71" sketch:type="MSShapeGroup"></path>
            <path d="M63.599,62.89 C63.599,62.89 64.974,60.019 64.974,59.452 C64.974,58.846 67.036,56.134 66.955,55.649 C68.371,55.567 76.421,56.499 77.797,57.955 C79.212,59.452 80.02,62.89 80.02,64.953 C79.131,65.116 77.554,65.682 76.745,66.651 C76.017,66.651 74.519,66.247 74.034,66.247 C73.549,66.247 72.982,66.328 72.133,65.519 C70.758,65.438 70.354,65.438 69.908,65.438 C69.504,65.438 68.613,64.953 68.613,64.953 C68.613,64.953 67.522,64.226 65.903,64.226 C64.974,63.699 64.487,63.376 63.599,63.214 L63.599,62.89" id="Fill-72" sketch:type="MSShapeGroup"></path>
            <path d="M67.197,55.002 C67.197,55.002 75.086,55.245 77.797,57.552 C76.664,56.055 71.729,54.437 67.359,54.437 C66.955,54.759 67.197,55.002 67.197,55.002" id="Fill-73" sketch:type="MSShapeGroup"></path>
            <path d="M70.354,65.843 C70.354,65.843 71,67.26 71.242,67.663 C71.485,68.067 73.953,69.565 75.936,69.727 C77.877,69.889 82.165,69.97 82.487,70.132 C82.812,70.294 84.148,73.327 84.795,73.894 C84.875,74.744 84.714,75.228 85.846,75.472 C87.019,75.713 86.291,76.765 87.747,77.21 C89.243,77.615 88.151,76.765 89.001,76.765 C89.81,76.765 89.082,77.007 90.134,76.846 C91.226,76.685 89.405,74.54 89.001,74.378 C88.597,74.216 87.747,75.066 87.747,75.066 C87.747,75.066 87.019,75.634 87.181,73.975 C86.453,73.165 86.371,73.569 86.21,72.922 C86.048,72.275 84.31,68.148 83.499,67.098 C82.65,66.004 82.487,67.421 80.587,66.935 C78.728,66.409 78.808,65.924 78.808,65.924 C78.808,65.924 77.958,66.57 77.554,66.651 C77.149,66.773 76.906,67.663 76.906,67.663 C76.906,67.663 75.936,67.179 75.167,67.017 C74.438,66.856 73.872,67.179 73.872,67.179 C73.872,67.179 73.388,67.502 71.971,66.409 C70.838,65.843 70.92,65.843 70.354,65.843" id="Fill-74" sketch:type="MSShapeGroup"></path>
            <path d="M79.374,65.843 C79.374,65.843 80.02,66.086 80.507,66.409 C81.032,66.773 81.841,66.57 81.841,66.57 C81.841,66.57 80.871,64.873 79.374,65.843" id="Fill-75" sketch:type="MSShapeGroup"></path>
            <path d="M80.345,70.373 C80.345,70.373 81.032,73.246 81.032,74.459 C81.68,75.066 82.165,74.985 82.327,75.552 C82.487,76.118 83.136,76.523 83.662,76.118 C84.148,75.713 84.148,76.765 84.148,76.765 L85.199,77.453 C85.199,77.453 85.523,75.956 85.199,75.794 C84.875,75.634 84.066,74.54 83.742,73.975 C83.58,74.378 83.217,74.136 83.055,73.409 C82.893,72.681 82.327,71.183 82.327,70.778 C82.327,70.373 80.345,70.373 80.345,70.373" id="Fill-76" sketch:type="MSShapeGroup"></path>
            <path d="M70.596,67.017 C70.596,67.017 70.15,66.086 68.047,65.763 C68.129,66.328 68.452,66.086 68.694,66.328 C68.937,66.57 69.827,66.935 69.827,67.26 C69.827,67.583 70.596,67.825 70.596,67.017" id="Fill-77" sketch:type="MSShapeGroup"></path>
            <path d="M78.524,57.471 C78.402,57.512 79.253,58.239 79.332,58.279 C79.818,58.52 80.587,58.644 81.032,58.239 C81.234,58.52 81.559,58.764 81.76,59.048 C82.043,59.493 82.246,60.019 82.366,60.542 C82.731,62.243 84.066,64.307 86.898,64.307 C87.787,64.468 88.273,64.63 88.557,64.752 C88.475,64.226 87.99,63.82 87.181,63.699 C87.99,63.376 88.313,63.175 89.162,63.214 C89.972,63.295 90.7,63.699 91.185,64.265 C91.185,64.264 92.157,64.265 89.972,62.445 C88.597,61.958 87.666,61.839 87.464,61.517 C88.394,61.394 89.325,61.192 90.295,61.958 C91.307,62.729 91.185,63.052 92.157,63.052 C91.388,62.001 91.55,62.082 91.226,61.394 C90.902,60.746 89.851,60.542 88.313,60.827 C86.817,61.07 86.857,60.827 86.857,60.827 L87.019,61.313 C87.019,61.313 85.32,61.517 84.673,59.614 C84.268,59.128 84.187,58.968 84.187,58.968 C84.916,59.29 85.199,59.856 85.199,59.898 C85.36,60.18 86.048,60.383 86.331,60.464 C87.343,60.746 88.273,60.139 89.284,60.221 C90.053,60.261 90.7,60.626 91.388,60.867 C91.024,59.977 90.7,59.655 89.932,59.333 C89.365,59.333 89.162,59.533 88.394,59.614 C87.626,59.655 86.21,59.774 84.066,57.471 C81.72,56.096 78.524,57.471 78.524,57.471" id="Fill-78" sketch:type="MSShapeGroup"></path>
            <path d="M48.349,54.721 C48.349,54.922 48.106,55.044 47.782,55.044 C47.498,55.044 47.256,54.922 47.256,54.721 C47.256,54.559 47.498,54.396 47.782,54.396 C48.106,54.396 48.349,54.559 48.349,54.721" id="Fill-79" sketch:type="MSShapeGroup"></path>
            <path d="M49.196,54.437 C49.196,54.599 49.076,54.721 48.874,54.721 C48.712,54.721 48.55,54.599 48.55,54.437 C48.55,54.315 48.712,54.193 48.874,54.193 C49.076,54.193 49.196,54.315 49.196,54.437" id="Fill-80" sketch:type="MSShapeGroup"></path>
            <path d="M50.33,54.476 C50.33,54.638 50.168,54.802 50.047,54.802 C49.886,54.802 49.764,54.638 49.764,54.476 C49.764,54.315 49.886,54.193 50.047,54.193 C50.168,54.193 50.33,54.315 50.33,54.476" id="Fill-81" sketch:type="MSShapeGroup"></path>
            <path d="M51.503,54.476 C51.503,54.638 51.342,54.802 51.099,54.802 C50.896,54.802 50.694,54.638 50.694,54.476 C50.694,54.315 50.896,54.193 51.099,54.193 C51.342,54.193 51.503,54.315 51.503,54.476" id="Fill-82" sketch:type="MSShapeGroup"></path>
            <path d="M52.757,54.599 C52.757,54.721 52.555,54.84 52.313,54.84 C52.069,54.84 51.826,54.721 51.826,54.599 C51.826,54.437 52.069,54.356 52.313,54.356 C52.555,54.356 52.757,54.437 52.757,54.599" id="Fill-83" sketch:type="MSShapeGroup"></path>
            <path d="M53.931,54.721 C53.931,54.922 53.727,55.044 53.525,55.044 C53.283,55.044 53.121,54.922 53.121,54.721 C53.121,54.559 53.283,54.396 53.525,54.396 C53.727,54.396 53.931,54.559 53.931,54.721" id="Fill-84" sketch:type="MSShapeGroup"></path>
            <path d="M55.062,55.367 C55.062,55.567 54.901,55.731 54.699,55.731 C54.496,55.731 54.295,55.567 54.295,55.367 C54.295,55.205 54.496,55.044 54.699,55.044 C54.901,55.044 55.062,55.205 55.062,55.367" id="Fill-85" sketch:type="MSShapeGroup"></path>
            <path d="M56.074,55.567 C56.074,55.731 55.913,55.893 55.751,55.893 C55.588,55.893 55.468,55.731 55.468,55.567 C55.468,55.407 55.588,55.287 55.751,55.287 C55.913,55.287 56.074,55.407 56.074,55.567" id="Fill-86" sketch:type="MSShapeGroup"></path>
            <path d="M57.085,56.055 C57.085,56.175 56.924,56.257 56.721,56.257 C56.519,56.257 56.357,56.175 56.357,56.055 C56.357,55.974 56.519,55.893 56.721,55.893 C56.924,55.893 57.085,55.974 57.085,56.055" id="Fill-87" sketch:type="MSShapeGroup"></path>
            <path d="M57.045,56.337 C57.045,56.499 57.288,56.58 57.571,56.58 C57.854,56.58 58.096,56.499 58.096,56.337 C58.096,56.215 57.854,56.096 57.571,56.096 C57.288,56.096 57.045,56.215 57.045,56.337" id="Fill-88" sketch:type="MSShapeGroup"></path>
            <path d="M58.986,56.824 C58.986,56.945 58.825,57.065 58.703,57.065 C58.541,57.065 58.421,56.945 58.421,56.824 C58.421,56.66 58.541,56.539 58.703,56.539 C58.825,56.539 58.986,56.66 58.986,56.824" id="Fill-89" sketch:type="MSShapeGroup"></path>
            <path d="M62.789,41.37 C62.789,41.37 59.715,40.724 56.681,41.128 C56.195,42.26 55.791,42.907 55.629,43.352 C56.601,43.435 57.166,43.352 57.166,43.839 C57.166,44.323 55.71,45.375 55.144,45.901 C55.062,47.115 55.791,50.958 56.114,51.565 C57.441,50.962 60.687,49.358 62.751,41.513 C62.765,41.534 62.782,41.56 62.804,41.586 C62.855,41.649 62.928,41.724 63.009,41.808 C62.441,43.759 61.776,45.813 60.762,47.607 C59.743,49.407 58.374,50.949 56.398,51.869 L56.454,51.993 C58.461,51.06 59.85,49.498 60.881,47.676 C61.909,45.857 62.579,43.78 63.151,41.807 L63.163,41.767 L63.135,41.74 C63.042,41.648 62.961,41.563 62.91,41.498 C62.874,41.458 62.847,41.443 62.85,41.438 L62.783,41.394 C62.785,41.387 62.787,41.38 62.789,41.37" id="Fill-90" sketch:type="MSShapeGroup"></path>
        </g>
    </g>
</svg>